{
    "alpha": 1000.0,
    "core": -1,
    "decay": 0.01,
    "epsilon": 0.1,
    "hidden_dim": 100,
    "interval": 100,
    "iteration": 5001,
    "labeled_size": 4,
    "layer_size": 5,
    "lr": 0.01,
    "norm_eps": 1e-10,
    "power_iter": 1,
    "seedL1": 23,
    "seedL2": 7,
    "seedU1": 0,
    "seedU2": 1,
    "unlabeled_size": 1024,
    "varL": 0.1,
    "varU": 0.4,
    "xi": 0.01
}